{
    "type": "service_account",
    "project_id": "supermarkets-products-index",
    "private_key_id": "800b1722ced9bca33755dcf9ab42624ae97deaf6",
    "private_key": "-----BEGIN PRIVATE KEY-----\nMIIEvQIBADANBgkqhkiG9w0BAQEFAASCBKcwggSjAgEAAoIBAQC7/5lWu6sI7zjR\naeWW89D9Y2dbwyPswN4wK6vMAgHAVpG6TdyW5wFFRlGFzYKNyYEhbhXBKQlLTMp2\nfTAZsrs18cB/aAhavXUS36sk1RkHbLo9ELCsdMu+MjKj5pu3p6+xgPz2LvMsqvP9\nRBF7cOpX3mgFqnG7m/EbPX0dLSGchGOKNeMfuKjZcPlr/BmwK7GeOinN96CalOg+\nKYULtVTIeLdGl/+ygdUF0uSul5mLOcA1evxgW7ABLSfhne/JKbiaeI+ZrvW7hyFz\nqBJ8jVtZweUDhXpSV6j1NqcIGFi5wIXSQ1glMCphtoVvxJKrBkjz538IXJ4o/Upm\nFurDP8RXAgMBAAECggEAKKFxLoGY0XGCQiA08o73WAwnxnlCRmTYoGiP1KOKZVtQ\nW4eAaUy7xZERBW4JDUPDmMoGAZ0w2QlbqIgd4S/zrhD1nZOKWrIfn1if0HIN2sDw\n70mwJVWIwy5uK2YnuWWQXziVc09qVvkLim0vqhIZU6xJpw/TTMzDKzP62ldqsDy9\nrxxexLFq6CWNu1V5Hx4yp92kfSK9vBqMCAha622RNiM0oP0TXHd1EYYrbo5ugRlO\nw0m39jRyUhZv65zg4QNUbwqOWsUh2CwhbCNUf7OMXfuZOlSpEWrAOIy4ZgpuJB1D\nH7Z6mLz4sn6hqnybd8ru/WRXiV0WW6B2TRFmzsNqQQKBgQDkZ8OUixIdcTZmkwSf\n4P9nADijL64ugTV+asUjGUOf7LhzehBKFT8WvanbjUEslvPxtrdmVI8qiD4pI/bq\nfhz0dfwWTr+60doDntZJ41KCinTjYCNXDomMG6xLNRL3Ha4vaQ/itd8fWv98K0oi\nJUBrrw+/4O4yHSQkKatsG05M7wKBgQDSthwrIuz30qPf+KWOZybD0fs6zUsOfwQH\nYmL0o7R/E1bOrQzxzxgPmNs6WcReW+BOOzsa2uth22MQ7B/RfrzaXehQa+klatVb\nRy2Wg9RUewEcIs6XsjRPQLCWC4Fdll78Kv9dKFRqP+nI+eZqFLsdPrWtsysMGLz9\ny3+9Z+vPGQKBgDVKjJSM+jYKYzH9nXecLJsgrxZMGqzZEt0jFkoBLAkVV1gCI+jV\nGjo5GHeUdp9rvREpm5LxqdG3piE9NfAyapkTKjUePJffPKnZlo/4zRiOK4WducEn\nMCqTjlih0oH719dSARXZb2zGc5PKGerrnCND3j3bwlfI+tTBMDDyEgvbAoGATCxh\nioaZvA1+CJ3O2+gWb3wdomhM1fS89B5xP5dezQGkxBpzL4d6X0kXF8UT5Di6og1v\nlInHxhyVd6yk5As5IogIT+py4n/4mYLlzB/kRpYhFJbQsK5PkscED3ohTj/qHqc8\noeTOf4qTbYBJ99d+vVfKPf0jdsAKsoU6rLJA4SECgYEAmVjJOPhXGDtnoSGbqLpu\nDER+DPdLxi6YfilVzZPDW+6lX2kt1ebz7oWH8H8X6OAZF7rXXLVqOsntCDTWoZL7\nEgoTLAPypu+592Sd1o9G7uoQxJbyFCWIzFzKJx52pN0FI/+6zCeDgiZfFYpdjvga\nI+h6yrH7rVtez773ycjlv/Y=\n-----END PRIVATE KEY-----\n",
    "client_email": "firebase-adminsdk-jnupe@supermarkets-products-index.iam.gserviceaccount.com",
    "client_id": "103817342711851132192",
    "auth_uri": "https://accounts.google.com/o/oauth2/auth",
    "token_uri": "https://accounts.google.com/o/oauth2/token",
    "auth_provider_x509_cert_url": "https://www.googleapis.com/oauth2/v1/certs",
    "client_x509_cert_url": "https://www.googleapis.com/robot/v1/metadata/x509/firebase-adminsdk-jnupe%40supermarkets-products-index.iam.gserviceaccount.com"
  }
  